{
    "results": [
        {
            "id": 500682
        }
    ],
    "page": 2,
    "total_results": 1160,
    "dates": {
        "maximum": "2019-04-22",
        "minimum": "2019-03-05"
    },
    "total_pages": 58
}
