{
    "page": 1,
    "results": [
        {
            "id": 9738,
        }
    ],
    "total_pages": 17,
    "total_results": 332
}
