{
    "results": [
        {
            "vote_count": 426,
            "id": 500682,
            "video": false,
            "vote_average": 6.7,
            "title": "The Highwaymen",
            "popularity": 48.223,
            "poster_path": "/4bRYg4l12yDuJvAfqvUOPnBrxno.jpg",
            "original_language": "en",
            "original_title": "The Highwaymen",
            "genre_ids": [
                80,
                18,
                53
            ],
            "backdrop_path": "/pZ78ksjPlXf3q2EeONN8WdHE03Y.jpg",
            "adult": false,
            "overview": "In 1934, Frank Hamer and Manny Gault, two former Texas Rangers, are commissioned to put an end to the wave of vicious crimes perpetrated by Bonnie Parker and Clyde Barrow, a notorious duo of infamous robbers and cold-blooded killers who nevertheless are worshiped by the public.",
            "release_date": "2019-03-15"
        },
        {
            "vote_count": 305,
            "id": 438650,
            "video": false,
            "vote_average": 5.2,
            "title": "Cold Pursuit",
            "popularity": 48.036,
            "poster_path": "/hXgmWPd1SuujRZ4QnKLzrj79PAw.jpg",
            "original_language": "en",
            "original_title": "Cold Pursuit",
            "genre_ids": [
                28,
                18,
                53
            ],
            "backdrop_path": "/7Wg6FOEvhduISlxSzSCutAl4lPq.jpg",
            "adult": false,
            "overview": "Nels Coxman's quiet life comes crashing down when his beloved son dies under mysterious circumstances. His search for the truth soon becomes a quest for revenge as he seeks coldblooded justice against a drug lord and his inner circle.",
            "release_date": "2019-02-07"
        },
        {
            "vote_count": 619,
            "id": 491418,
            "video": false,
            "vote_average": 7.5,
            "title": "Instant Family",
            "popularity": 46.42,
            "poster_path": "/dic3GdmMpxxfkCQfvZnasb5ZkSG.jpg",
            "original_language": "en",
            "original_title": "Instant Family",
            "genre_ids": [
                35,
                18
            ],
            "backdrop_path": "/lwICpzZudw8BZ0bODaHgRWCdioB.jpg",
            "adult": false,
            "overview": "When Pete and Ellie decide to start a family, they stumble into the world of foster care adoption. They hope to take in one small child but when they meet three siblings, including a rebellious 15 year old girl, they find themselves speeding from zero to three kids overnight.",
            "release_date": "2018-11-16"
        },
        {
            "vote_count": 60,
            "id": 453755,
            "video": false,
            "vote_average": 7,
            "title": "Arctic",
            "popularity": 45.424,
            "poster_path": "/w9GVlRteCgY103DN8CdFik3HUhO.jpg",
            "original_language": "en",
            "original_title": "Arctic",
            "genre_ids": [
                53,
                18,
                12
            ],
            "backdrop_path": "/adNNHvX31BATsQjSBurupj0gt30.jpg",
            "adult": false,
            "overview": "A man stranded in the Arctic is finally about to receive his long awaited rescue. However, after a tragic accident, his opportunity is lost and he must then decide whether to remain in the relative safety of his camp or embark on a deadly trek through the unknown for potential salvation.",
            "release_date": "2018-07-26"
        },
        {
            "vote_count": 2913,
            "id": 490132,
            "video": false,
            "vote_average": 8.3,
            "title": "Green Book",
            "popularity": 43.463,
            "poster_path": "/7BsvSuDQuoqhWmU2fL7W2GOcZHU.jpg",
            "original_language": "en",
            "original_title": "Green Book",
            "genre_ids": [
                18,
                35,
                10402
            ],
            "backdrop_path": "/78PjwaykLY2QqhMfWRDvmfbC6EV.jpg",
            "adult": false,
            "overview": "Tony Lip, a bouncer in 1962, is hired to drive pianist Don Shirley on a tour through the Deep South in the days when African Americans, forced to find alternate accommodations and services due to segregation laws below the Mason-Dixon Line, relied on a guide called The Negro Motorist Green Book.",
            "release_date": "2018-11-16"
        },
        {
            "vote_count": 399,
            "id": 280217,
            "video": false,
            "vote_average": 6.7,
            "title": "The Lego Movie 2: The Second Part",
            "popularity": 43.33,
            "poster_path": "/QTESAsBVZwjtGJNDP7utiGV37z.jpg",
            "original_language": "en",
            "original_title": "The Lego Movie 2: The Second Part",
            "genre_ids": [
                28,
                12,
                16,
                35,
                10751,
                878,
                14
            ],
            "backdrop_path": "/8kPozGb4BDrcWBSsGPrkULG2tP9.jpg",
            "adult": false,
            "overview": "It's been five years since everything was awesome and the citizens are facing a huge new threat: LEGO DUPLO® invaders from outer space, wrecking everything faster than they can rebuild.",
            "release_date": "2019-01-26"
        },
        {
            "vote_count": 195,
            "id": 300681,
            "video": false,
            "vote_average": 5.6,
            "title": "Replicas",
            "popularity": 43.307,
            "poster_path": "/hhPBTAn9b4TYOxc1JYNsX4BFAlW.jpg",
            "original_language": "en",
            "original_title": "Replicas",
            "genre_ids": [
                53,
                878
            ],
            "backdrop_path": "/sHPfBVFq7dlnXCz1zFdbEdwcBDJ.jpg",
            "adult": false,
            "overview": "A scientist becomes obsessed with returning his family to normalcy after a terrible accident.",
            "release_date": "2018-10-25"
        },
        {
            "vote_count": 460,
            "id": 440161,
            "video": false,
            "vote_average": 7.1,
            "title": "The Sisters Brothers",
            "popularity": 40.66,
            "poster_path": "/7Tl2nZ6uvmxwK14Skbf9VFHEHpX.jpg",
            "original_language": "en",
            "original_title": "The Sisters Brothers",
            "genre_ids": [
                35,
                18,
                37
            ],
            "backdrop_path": "/iOa6iD7t7nv6wghPuMdZCaQSDJh.jpg",
            "adult": false,
            "overview": "Oregon, 1851. Hermann Kermit Warm, a chemist and aspiring gold prospector, keeps a profitable secret that the Commodore wants to know, so he sends the Sisters brothers, two notorious assassins, to capture him on his way to California.",
            "release_date": "2018-09-19"
        },
        {
            "vote_count": 628,
            "id": 361292,
            "video": false,
            "vote_average": 7.1,
            "title": "Suspiria",
            "popularity": 40.253,
            "poster_path": "/dzWTnkert9EoiPWldWJ15dnfAFl.jpg",
            "original_language": "en",
            "original_title": "Suspiria",
            "genre_ids": [
                53,
                9648,
                27,
                14
            ],
            "backdrop_path": "/AmO8I38bkHwKhgxPNrd6djBQyPU.jpg",
            "adult": false,
            "overview": "A darkness swirls at the center of a world-renowned dance company, one that will engulf the troupe's artistic director, an ambitious young dancer and a grieving psychotherapist. Some will succumb to the nightmare, others will finally wake up.",
            "release_date": "2018-10-11"
        },
        {
            "vote_count": 123,
            "id": 450001,
            "video": false,
            "vote_average": 5.1,
            "title": "Master Z: Ip Man Legacy",
            "popularity": 40.028,
            "poster_path": "/nkCoAik5I4j3Gkd2upj9xv4F0QN.jpg",
            "original_language": "cn",
            "original_title": "葉問外傳：張天志",
            "genre_ids": [
                28
            ],
            "backdrop_path": "/grtVFGJ4ts0nDAPpc1JWbBoVKTu.jpg",
            "adult": false,
            "overview": "After being defeated by Ip Man, Cheung Tin Chi is attempting to keep a low profile. While going about his business, he gets into a fight with a foreigner by the name of Davidson, who is a big boss behind the bar district. Tin Chi fights hard with Wing Chun and earns respect.",
            "release_date": "2018-12-20"
        },
        {
            "vote_count": 419,
            "id": 527641,
            "video": false,
            "vote_average": 8.2,
            "title": "Five Feet Apart",
            "popularity": 39.837,
            "poster_path": "/kreTuJBkUjVWePRfhHZuYfhNE1T.jpg",
            "original_language": "en",
            "original_title": "Five Feet Apart",
            "genre_ids": [
                10749,
                18
            ],
            "backdrop_path": "/d7wa3VpUpKDQ7GG9EMw8zSJCFoI.jpg",
            "adult": false,
            "overview": "Seventeen-year-old Stella spends most of her time in the hospital as a cystic fibrosis patient. Her life is full of routines, boundaries and self-control -- all of which get put to the test when she meets Will, an impossibly charming teen who has the same illness.",
            "release_date": "2019-03-15"
        },
        {
            "vote_count": 22,
            "id": 553141,
            "video": false,
            "vote_average": 5,
            "title": "The Head Hunter",
            "popularity": 39.114,
            "poster_path": "/ol0DSLOIN8Rq1BcWDTsk6NNwas6.jpg",
            "original_language": "en",
            "original_title": "The Head Hunter",
            "genre_ids": [
                27,
                14
            ],
            "backdrop_path": "/hgfWu52a8HvC5R4gGbXFRGcC8d4.jpg",
            "adult": false,
            "overview": "On the outskirts of a kingdom, a quiet but fierce medieval warrior protects the realm from monsters and the occult. His gruesome collection of heads is missing only one - the monster that killed his daughter years ago. Driven by a thirst for revenge, he travels wild expanses on horseback. When his second chance arrives, it’s in a way far more horrifying than he ever imagined.",
            "release_date": "2019-04-05"
        },
        {
            "vote_count": 68,
            "id": 449985,
            "video": false,
            "vote_average": 5.6,
            "title": "Triple Threat",
            "popularity": 38.369,
            "poster_path": "/cSpM3QxmoSLp4O1WAMQpUDcaB7R.jpg",
            "original_language": "en",
            "original_title": "Triple Threat",
            "genre_ids": [
                53,
                28,
                80
            ],
            "backdrop_path": "/2f8fkWSWOVcTlWforoVpsuaCiwI.jpg",
            "adult": false,
            "overview": "A crime syndicate places a hit on a billionaire's daughter, making her the target of an elite assassin squad. A small band of down-and-out mercenaries protects her, fighting tooth and nail to stop the assassins from reaching their target.",
            "release_date": "2019-03-19"
        },
        {
            "vote_count": 14,
            "id": 514439,
            "video": false,
            "vote_average": 7.4,
            "title": "Breakthrough",
            "popularity": 37.643,
            "poster_path": "/t58dx7JIgchr9If5uxn3NmHaHoS.jpg",
            "original_language": "en",
            "original_title": "Breakthrough",
            "genre_ids": [
                18
            ],
            "backdrop_path": "/6jaNHf9ja84YG3KWMDK1nOnvGDg.jpg",
            "adult": false,
            "overview": "When he was 14, Smith drowned in Lake St. Louis and was dead for nearly an hour. According to reports at the time, CPR was performed 27 minutes to no avail. Then the youth's mother, Joyce Smith, entered the room, praying loudly. Suddenly, there was a pulse, and Smith came around.",
            "release_date": "2019-04-11"
        },
        {
            "vote_count": 1010,
            "id": 429197,
            "video": false,
            "vote_average": 7.1,
            "title": "Vice",
            "popularity": 35.486,
            "poster_path": "/1gCab6rNv1r6V64cwsU4oEr649Y.jpg",
            "original_language": "en",
            "original_title": "Vice",
            "genre_ids": [
                18,
                36,
                35
            ],
            "backdrop_path": "/7TTlvADXSxg0yzlGTZFExmw4TSC.jpg",
            "adult": false,
            "overview": "George W. Bush picks Dick Cheney, the CEO of Halliburton Co., to be his Republican running mate in the 2000 presidential election. No stranger to politics, Cheney's impressive résumé includes stints as White House chief of staff, House Minority Whip and defense secretary. When Bush wins by a narrow margin, Cheney begins to use his newfound power to help reshape the country and the world.",
            "release_date": "2018-12-25"
        },
        {
            "vote_count": 20,
            "id": 576071,
            "video": false,
            "vote_average": 5.9,
            "title": "Unplanned",
            "popularity": 34.88,
            "poster_path": "/hQvf3RHgmp4XXXl2y6zhMe4G4kg.jpg",
            "original_language": "en",
            "original_title": "Unplanned",
            "genre_ids": [
                18
            ],
            "backdrop_path": "/tgjwS3oh53biNsNuzRKUjUVdXAE.jpg",
            "adult": false,
            "overview": "As one of the youngest Planned Parenthood clinic directors in the nation, Abby Johnson was involved in upwards of 22,000 abortions and counseled countless women on their reproductive choices. Her passion surrounding a woman's right to choose led her to become a spokesperson for Planned Parenthood, fighting to enact legislation for the cause she so deeply believed in. Until the day she saw something that changed everything.",
            "release_date": "2019-03-21"
        },
        {
            "vote_count": 4,
            "id": 576393,
            "video": false,
            "vote_average": 6.5,
            "title": "Fall in Love at First Kiss",
            "popularity": 34.306,
            "poster_path": "/wtaSH8MfJSCEIrrEX9SQuHdU5sl.jpg",
            "original_language": "zh",
            "original_title": "一吻定情",
            "genre_ids": [
                10749,
                35
            ],
            "backdrop_path": "/yY7kr7Rgvo8W0Kr3U0bMV8Zq1qM.jpg",
            "adult": false,
            "overview": "After an earthquake destroys Xiang Qin's house, she and her father move in with the family of her father's college buddy. To her surprise, her new kind and amicable aunt and uncle are the parents of her cold and distant schoolmate, Jiang Zhi Shu, a genius with an IQ of 200 whom not too long ago rejected her when she confessed her feelings for him. Will the close proximity give her a second chance to win Zhi Shu's heart? Or will her love for him end under his cold words?",
            "release_date": "2019-02-14"
        },
        {
            "vote_count": 25,
            "id": 526050,
            "video": false,
            "vote_average": 5.9,
            "title": "Little",
            "popularity": 33.645,
            "poster_path": "/4MDB6jJl3U7xK1Gw64zIqt9pQA4.jpg",
            "original_language": "en",
            "original_title": "Little",
            "genre_ids": [
                35,
                14
            ],
            "backdrop_path": "/tmM78qRhpg0i2Cky8Q8hXKASOXY.jpg",
            "adult": false,
            "overview": "A woman receives the chance to relive the life of her younger self, at a point in her life when the pressures of adulthood become too much for her to bear.",
            "release_date": "2019-04-04"
        },
        {
            "vote_count": 0,
            "id": 460539,
            "video": false,
            "vote_average": 0,
            "title": "Kuppathu Raja",
            "popularity": 33.309,
            "poster_path": "/wzLde7keWQqWA0CJYVz0X5RVKjd.jpg",
            "original_language": "ta",
            "original_title": "குப்பத்து ராஜா",
            "genre_ids": [
                28,
                35,
                18
            ],
            "backdrop_path": null,
            "adult": false,
            "overview": "A story about the relationship between the slum dwellers in Chennai and how certain anti-social elements create unrest in their lives.",
            "release_date": "2019-04-05"
        },
        {
            "vote_count": 169,
            "id": 339380,
            "video": false,
            "vote_average": 7.4,
            "title": "On the Basis of Sex",
            "popularity": 32.894,
            "poster_path": "/izY9Le3QWtu7xkHq7bjJnuE5yGI.jpg",
            "original_language": "en",
            "original_title": "On the Basis of Sex",
            "genre_ids": [
                18,
                36
            ],
            "backdrop_path": "/3lZuky17k1ihovh6mvFyGfgLIi4.jpg",
            "adult": false,
            "overview": "Young lawyer Ruth Bader Ginsburg teams with her husband Marty to bring a groundbreaking case before the U.S. Court of Appeals and overturn a century of sex discrimination.",
            "release_date": "2018-12-25"
        }
    ],
    "page": 1,
    "total_results": 40,
    "dates": {
        "maximum": "2019-04-22",
        "minimum": "2019-03-05"
    },
    "total_pages": 2
}
